#### ALTITUDE [m] ####
0.0
#### VELOCITY [m/s] ####
11.2192
#### PROPELLER POWER [W] ####
985,2309,3634,4958,6283,7607,8931
#### MIN. DBETA [Deg.] ####
-13.0
#### MAX. DBETA[Deg.] ####
10.0
#### DELTA DBETA [Deg.] ####
0.1
#### CLIMB + HOVER (1) or SINK + HOVER(0) ####
1
#### DRAG [N] - ######## OPTIONAL ########
87.85183440229041
#### MASS [kg] - ######## OPTIONAL ########
270.0
