#### PLOTFLAG 1-YES, 0-NO ####
0

#### NUMBER OF MOTORS ####
2

#### NUMBER OF BATTERY PACKS PER SET ####
2

#### INTERNAL BATTERY RESISTANCE PER PACK [OHM] ####
0.02415

#### AVERAGE BATTERY VOLTAGE [V] ####
52.

#### PARAMETER FOR MOTOR FE- AND BEARING LOSS ####
0.25

#### INTERNAL MOTOR RESISTANCE [OHM] ####
0.0052

#### INTERNAL MOTOR CONTROLLER RESISTANCE [OHM] ####
0.01

#### MOTOR CONTROLLER LOSS PARAMETER ####
1.73

#### ADDITIONAL MOTOR CONTROLLER LOSS DUE TO NON-EXISTANT ACTIVE FREEWHEELING####
1.0

#### MEASURED EPU EFFICIENCY DATA AVAILABLE? 0 OR 1 ####
1

#### SCALEFACTORS FOR TOTAL-POWER (FIRST) AND CURRENT-CONSTANT (SECOND) ####
1.07,0.93

#### MEASURED EPU EFFICIENCY DATA FILE ####
/home/sven/EPU-Efficiency-Data/HPD32D/A1.csv

#### MEASURED EPU CURRENT CONSTANT DATA FILE ####
/home/sven/EPU-Efficiency-Data/HPD32D/A2.csv

#### PENALTY FACTOR TO ACCOUNT FOR BET UNDERPREDICTION OF PROPELLER TORQUE (USUALLY 5% - 10%) ####
1.05

#### MOTOR CURRENT CONSTANT (PER MOTOR) ####
0.22

#### MAXIMUM MOTOR CURRENT PER MOTOR [A] ####
270.

#### PEAK MOTOR CURRENT PER MOTOR [A] ####
320.

####################################  DEFAULT VALUES BY GEIGER #################################### ###################################################################################################
MOTOR CURRENT CONSTANT: 0.15 # motor current constant (per motor!), Redesign Variant, Kv=57 U/min/V w/o load, Kv=52 U/min/V with nominal load I=270A - Discussed for Chinese Variants.
MOTOR CURRENT CONSTANT: 0.22 # motor current constant (per motor!), Original/Standard Variant, Kv=48 U/min/V w/o load, Kv=44 U/min/V with nominal load I=270A - Implemented in SolarStratos.
INTERNAL MOTOR RESISTANCE: 0.004 OHM
INTERNAL MOTOR CONTROLLER RESISTANCE: 0.008 OHM
INTERNAL BATTERY RESISTANCE PER PACK: 0.021 OHM
MAXIMUM MOTOR CURRENT PER MOTOR: 270 # max current per motor [A], also called "nominal current", can be consumed permanently. 
PEAK MOTOR CURRENT PER MOTOR: 320 # Peak-current, only for limited amount of time (approx. 1 minute).
